%YAML 1.1
%TAG !u! tag:unity3d.com,2011:
--- !u!29 &1
OcclusionCullingSettings:
  m_ObjectHideFlags: 0
  serializedVersion: 2
  m_OcclusionBakeSettings:
    smallestOccluder: 5
    smallestHole: 0.25
    backfaceThreshold: 100
  m_SceneGUID: 00000000000000000000000000000000
  m_OcclusionCullingData: {fileID: 0}
--- !u!104 &2
RenderSettings:
  m_ObjectHideFlags: 0
  serializedVersion: 7
  m_Fog: 0
  m_FogColor: {r: 0.5, g: 0.5, b: 0.5, a: 1}
  m_FogMode: 3
  m_FogDensity: 0.01
  m_LinearFogStart: 0
  m_LinearFogEnd: 300
  m_AmbientSkyColor: {r: 0.212, g: 0.227, b: 0.259, a: 1}
  m_AmbientEquatorColor: {r: 0.114, g: 0.125, b: 0.133, a: 1}
  m_AmbientGroundColor: {r: 0.047, g: 0.043, b: 0.035, a: 1}
  m_AmbientIntensity: 1
  m_AmbientMode: 0
  m_SkyboxMaterial: {fileID: 10304, guid: 0000000000000000f000000000000000, type: 0}
  m_HaloStrength: 0.5
  m_FlareStrength: 1
  m_FlareFadeSpeed: 3
  m_HaloTexture: {fileID: 0}
  m_SpotCookie: {fileID: 10001, guid: 0000000000000000e000000000000000, type: 0}
  m_DefaultReflectionMode: 0
  m_DefaultReflectionResolution: 128
  m_ReflectionBounces: 1
  m_ReflectionIntensity: 1
  m_CustomReflection: {fileID: 0}
  m_Sun: {fileID: 0}
  m_IndirectSpecularColor: {r: 0.43667564, g: 0.48427147, b: 0.56452364, a: 1}
--- !u!157 &3
LightmapSettings:
  m_ObjectHideFlags: 0
  serializedVersion: 7
  m_GIWorkflowMode: 0
  m_GISettings:
    serializedVersion: 2
    m_BounceScale: 1
    m_IndirectOutputScale: 1
    m_AlbedoBoost: 1
    m_TemporalCoherenceThreshold: 1
    m_EnvironmentLightingMode: 0
    m_EnableBakedLightmaps: 1
    m_EnableRealtimeLightmaps: 1
  m_LightmapEditorSettings:
    serializedVersion: 4
    m_Resolution: 2
    m_BakeResolution: 40
    m_TextureWidth: 1024
    m_TextureHeight: 1024
    m_AO: 0
    m_AOMaxDistance: 1
    m_CompAOExponent: 1
    m_CompAOExponentDirect: 0
    m_Padding: 2
    m_LightmapParameters: {fileID: 0}
    m_LightmapsBakeMode: 1
    m_TextureCompression: 1
    m_DirectLightInLightProbes: 1
    m_FinalGather: 0
    m_FinalGatherFiltering: 1
    m_FinalGatherRayCount: 256
    m_ReflectionCompression: 2
  m_LightingDataAsset: {fileID: 0}
  m_RuntimeCPUUsage: 25
--- !u!196 &4
NavMeshSettings:
  serializedVersion: 2
  m_ObjectHideFlags: 0
  m_BuildSettings:
    serializedVersion: 2
    agentTypeID: 0
    agentRadius: 0.5
    agentHeight: 2
    agentSlope: 45
    agentClimb: 0.4
    ledgeDropHeight: 0
    maxJumpAcrossDistance: 0
    minRegionArea: 2
    manualCellSize: 0
    cellSize: 0.16666667
    accuratePlacement: 0
  m_NavMeshData: {fileID: 23800000, guid: 436c7603b756a4311a4aba3881c12b53, type: 2}
--- !u!1001 &6205719
Prefab:
  m_ObjectHideFlags: 0
  serializedVersion: 2
  m_Modification:
    m_TransformParent: {fileID: 0}
    m_Modifications:
    - target: {fileID: 4361376716586310, guid: 4a55f05dc3b3c4451b07527a8fb778c2, type: 2}
      propertyPath: m_LocalPosition.x
      value: -204
      objectReference: {fileID: 0}
    - target: {fileID: 4361376716586310, guid: 4a55f05dc3b3c4451b07527a8fb778c2, type: 2}
      propertyPath: m_LocalPosition.y
      value: 23.521305
      objectReference: {fileID: 0}
    - target: {fileID: 4361376716586310, guid: 4a55f05dc3b3c4451b07527a8fb778c2, type: 2}
      propertyPath: m_LocalPosition.z
      value: 123.40608
      objectReference: {fileID: 0}
    - target: {fileID: 4361376716586310, guid: 4a55f05dc3b3c4451b07527a8fb778c2, type: 2}
      propertyPath: m_LocalRotation.x
      value: 0
      objectReference: {fileID: 0}
    - target: {fileID: 4361376716586310, guid: 4a55f05dc3b3c4451b07527a8fb778c2, type: 2}
      propertyPath: m_LocalRotation.y
      value: 0
      objectReference: {fileID: 0}
    - target: {fileID: 4361376716586310, guid: 4a55f05dc3b3c4451b07527a8fb778c2, type: 2}
      propertyPath: m_LocalRotation.z
      value: 0
      objectReference: {fileID: 0}
    - target: {fileID: 4361376716586310, guid: 4a55f05dc3b3c4451b07527a8fb778c2, type: 2}
      propertyPath: m_LocalRotation.w
      value: 1
      objectReference: {fileID: 0}
    - target: {fileID: 4361376716586310, guid: 4a55f05dc3b3c4451b07527a8fb778c2, type: 2}
      propertyPath: m_RootOrder
      value: 2
      objectReference: {fileID: 0}
    - target: {fileID: 114349076138072360, guid: 4a55f05dc3b3c4451b07527a8fb778c2,
        type: 2}
      propertyPath: lobby
      value: 
      objectReference: {fileID: 1507994539}
    - target: {fileID: 1371552048221858, guid: 4a55f05dc3b3c4451b07527a8fb778c2, type: 2}
      propertyPath: m_IsActive
      value: 0
      objectReference: {fileID: 0}
    m_RemovedComponents:
    - {fileID: 114673983103155156, guid: 4a55f05dc3b3c4451b07527a8fb778c2, type: 2}
  m_ParentPrefab: {fileID: 100100000, guid: 4a55f05dc3b3c4451b07527a8fb778c2, type: 2}
  m_IsPrefabParent: 0
--- !u!1001 &221017855
Prefab:
  m_ObjectHideFlags: 0
  serializedVersion: 2
  m_Modification:
    m_TransformParent: {fileID: 0}
    m_Modifications:
    - target: {fileID: 4239810826445798, guid: 7a832636859182b4f98ff2b2049dca7a, type: 2}
      propertyPath: m_LocalPosition.x
      value: 0
      objectReference: {fileID: 0}
    - target: {fileID: 4239810826445798, guid: 7a832636859182b4f98ff2b2049dca7a, type: 2}
      propertyPath: m_LocalPosition.y
      value: 0
      objectReference: {fileID: 0}
    - target: {fileID: 4239810826445798, guid: 7a832636859182b4f98ff2b2049dca7a, type: 2}
      propertyPath: m_LocalPosition.z
      value: 0
      objectReference: {fileID: 0}
    - target: {fileID: 4239810826445798, guid: 7a832636859182b4f98ff2b2049dca7a, type: 2}
      propertyPath: m_LocalRotation.x
      value: 0
      objectReference: {fileID: 0}
    - target: {fileID: 4239810826445798, guid: 7a832636859182b4f98ff2b2049dca7a, type: 2}
      propertyPath: m_LocalRotation.y
      value: 0
      objectReference: {fileID: 0}
    - target: {fileID: 4239810826445798, guid: 7a832636859182b4f98ff2b2049dca7a, type: 2}
      propertyPath: m_LocalRotation.z
      value: 0
      objectReference: {fileID: 0}
    - target: {fileID: 4239810826445798, guid: 7a832636859182b4f98ff2b2049dca7a, type: 2}
      propertyPath: m_LocalRotation.w
      value: 1
      objectReference: {fileID: 0}
    - target: {fileID: 4239810826445798, guid: 7a832636859182b4f98ff2b2049dca7a, type: 2}
      propertyPath: m_RootOrder
      value: 3
      objectReference: {fileID: 0}
    m_RemovedComponents: []
  m_ParentPrefab: {fileID: 100100000, guid: 7a832636859182b4f98ff2b2049dca7a, type: 2}
  m_IsPrefabParent: 0
--- !u!114 &1507994539 stripped
MonoBehaviour:
  m_PrefabParentObject: {fileID: 114587203138412036, guid: 6c9149e432dc9400e8d5726a42205ea2,
    type: 2}
  m_PrefabInternal: {fileID: 1609548329}
  m_Script: {fileID: 11500000, guid: 236fe266db134452dbc86a5585dd5a59, type: 3}
--- !u!1001 &1609548329
Prefab:
  m_ObjectHideFlags: 0
  serializedVersion: 2
  m_Modification:
    m_TransformParent: {fileID: 0}
    m_Modifications:
    - target: {fileID: 4271865217317144, guid: 6c9149e432dc9400e8d5726a42205ea2, type: 2}
      propertyPath: m_LocalPosition.x
      value: 360
      objectReference: {fileID: 0}
    - target: {fileID: 4271865217317144, guid: 6c9149e432dc9400e8d5726a42205ea2, type: 2}
      propertyPath: m_LocalPosition.y
      value: 1600
      objectReference: {fileID: 0}
    - target: {fileID: 4271865217317144, guid: 6c9149e432dc9400e8d5726a42205ea2, type: 2}
      propertyPath: m_LocalPosition.z
      value: 0
      objectReference: {fileID: 0}
    - target: {fileID: 4271865217317144, guid: 6c9149e432dc9400e8d5726a42205ea2, type: 2}
      propertyPath: m_LocalRotation.x
      value: -0
      objectReference: {fileID: 0}
    - target: {fileID: 4271865217317144, guid: 6c9149e432dc9400e8d5726a42205ea2, type: 2}
      propertyPath: m_LocalRotation.y
      value: -0
      objectReference: {fileID: 0}
    - target: {fileID: 4271865217317144, guid: 6c9149e432dc9400e8d5726a42205ea2, type: 2}
      propertyPath: m_LocalRotation.z
      value: -0
      objectReference: {fileID: 0}
    - target: {fileID: 4271865217317144, guid: 6c9149e432dc9400e8d5726a42205ea2, type: 2}
      propertyPath: m_LocalRotation.w
      value: 1
      objectReference: {fileID: 0}
    - target: {fileID: 4271865217317144, guid: 6c9149e432dc9400e8d5726a42205ea2, type: 2}
      propertyPath: m_RootOrder
      value: 1
      objectReference: {fileID: 0}
    m_RemovedComponents: []
  m_ParentPrefab: {fileID: 100100000, guid: 6c9149e432dc9400e8d5726a42205ea2, type: 2}
  m_IsPrefabParent: 0
--- !u!1001 &1674826046
Prefab:
  m_ObjectHideFlags: 0
  serializedVersion: 2
  m_Modification:
    m_TransformParent: {fileID: 0}
    m_Modifications:
    - target: {fileID: 4472099537136636, guid: c3bbc1b4909a94b8e98de7d822ca90d3, type: 2}
      propertyPath: m_LocalPosition.x
      value: -2.13
      objectReference: {fileID: 0}
    - target: {fileID: 4472099537136636, guid: c3bbc1b4909a94b8e98de7d822ca90d3, type: 2}
      propertyPath: m_LocalPosition.y
      value: -0.4
      objectReference: {fileID: 0}
    - target: {fileID: 4472099537136636, guid: c3bbc1b4909a94b8e98de7d822ca90d3, type: 2}
      propertyPath: m_LocalPosition.z
      value: -2.17
      objectReference: {fileID: 0}
    - target: {fileID: 4472099537136636, guid: c3bbc1b4909a94b8e98de7d822ca90d3, type: 2}
      propertyPath: m_LocalRotation.x
      value: 0
      objectReference: {fileID: 0}
    - target: {fileID: 4472099537136636, guid: c3bbc1b4909a94b8e98de7d822ca90d3, type: 2}
      propertyPath: m_LocalRotation.y
      value: 0
      objectReference: {fileID: 0}
    - target: {fileID: 4472099537136636, guid: c3bbc1b4909a94b8e98de7d822ca90d3, type: 2}
      propertyPath: m_LocalRotation.z
      value: 0
      objectReference: {fileID: 0}
    - target: {fileID: 4472099537136636, guid: c3bbc1b4909a94b8e98de7d822ca90d3, type: 2}
      propertyPath: m_LocalRotation.w
      value: 1
      objectReference: {fileID: 0}
    - target: {fileID: 4472099537136636, guid: c3bbc1b4909a94b8e98de7d822ca90d3, type: 2}
      propertyPath: m_RootOrder
      value: 4
      objectReference: {fileID: 0}
    - target: {fileID: 23452490134179458, guid: c3bbc1b4909a94b8e98de7d822ca90d3,
        type: 2}
      propertyPath: m_Materials.Array.data[0]
      value: 
      objectReference: {fileID: 2100000, guid: 77d8830a2707f481d81948d8646b5792, type: 2}
    m_RemovedComponents: []
  m_ParentPrefab: {fileID: 100100000, guid: c3bbc1b4909a94b8e98de7d822ca90d3, type: 2}
  m_IsPrefabParent: 0
--- !u!1 &1831967054
GameObject:
  m_ObjectHideFlags: 0
  m_PrefabParentObject: {fileID: 0}
  m_PrefabInternal: {fileID: 0}
  serializedVersion: 5
  m_Component:
  - component: {fileID: 1831967056}
  - component: {fileID: 1831967055}
  m_Layer: 0
  m_Name: Audio Source
  m_TagString: Untagged
  m_Icon: {fileID: 0}
  m_NavMeshLayer: 0
  m_StaticEditorFlags: 0
  m_IsActive: 1
--- !u!82 &1831967055
AudioSource:
  m_ObjectHideFlags: 0
  m_PrefabParentObject: {fileID: 0}
  m_PrefabInternal: {fileID: 0}
  m_GameObject: {fileID: 1831967054}
  m_Enabled: 1
  serializedVersion: 4
  OutputAudioMixerGroup: {fileID: 0}
  m_audioClip: {fileID: 8300000, guid: f496b3f8bcb51044590454f7613472c5, type: 3}
  m_PlayOnAwake: 1
  m_Volume: 1
  m_Pitch: 1
  Loop: 1
  Mute: 0
  Spatialize: 0
  SpatializePostEffects: 0
  Priority: 128
  DopplerLevel: 1
  MinDistance: 1
  MaxDistance: 500
  Pan2D: 0
  rolloffMode: 0
  BypassEffects: 0
  BypassListenerEffects: 0
  BypassReverbZones: 0
  rolloffCustomCurve:
    serializedVersion: 2
    m_Curve:
    - serializedVersion: 2
      time: 0
      value: 1
      inSlope: 0
      outSlope: 0
      tangentMode: 0
    - serializedVersion: 2
      time: 1
      value: 0
      inSlope: 0
      outSlope: 0
      tangentMode: 0
    m_PreInfinity: 2
    m_PostInfinity: 2
    m_RotationOrder: 4
  panLevelCustomCurve:
    serializedVersion: 2
    m_Curve:
    - serializedVersion: 2
      time: 0
      value: 0
      inSlope: 0
      outSlope: 0
      tangentMode: 0
    m_PreInfinity: 2
    m_PostInfinity: 2
    m_RotationOrder: 0
  spreadCustomCurve:
    serializedVersion: 2
    m_Curve:
    - serializedVersion: 2
      time: 0
      value: 0
      inSlope: 0
      outSlope: 0
      tangentMode: 0
    m_PreInfinity: 2
    m_PostInfinity: 2
    m_RotationOrder: 4
  reverbZoneMixCustomCurve:
    serializedVersion: 2
    m_Curve:
    - serializedVersion: 2
      time: 0
      value: 1
      inSlope: 0
      outSlope: 0
      tangentMode: 0
    m_PreInfinity: 2
    m_PostInfinity: 2
    m_RotationOrder: 0
--- !u!4 &1831967056
Transform:
  m_ObjectHideFlags: 0
  m_PrefabParentObject: {fileID: 0}
  m_PrefabInternal: {fileID: 0}
  m_GameObject: {fileID: 1831967054}
  m_LocalRotation: {x: 0, y: 0, z: 0, w: 1}
  m_LocalPosition: {x: 0, y: 0, z: 0}
  m_LocalScale: {x: 1, y: 1, z: 1}
  m_Children: []
  m_Father: {fileID: 0}
  m_RootOrder: 4
  m_LocalEulerAnglesHint: {x: 0, y: 0, z: 0}
--- !u!1 &2040927136 stripped
GameObject:
  m_PrefabParentObject: {fileID: 1769032404481132, guid: 4a55f05dc3b3c4451b07527a8fb778c2,
    type: 2}
  m_PrefabInternal: {fileID: 6205719}
--- !u!114 &2040927138
MonoBehaviour:
  m_ObjectHideFlags: 0
  m_PrefabParentObject: {fileID: 0}
  m_PrefabInternal: {fileID: 0}
  m_GameObject: {fileID: 2040927136}
  m_Enabled: 1
  m_EditorHideFlags: 0
  m_Script: {fileID: 11500000, guid: ac4692826f612944eb73e418392dd9a5, type: 3}
  m_Name: 
  m_EditorClassIdentifier: 
  listenerId: 0
